{"general_params":{"input_fresource_dir": "<path-to-input-directory>",
                   "input_files_to_analyze": "<[]: list containing files that will be analysed; empty means all files">,
                   "input_delim": "string indicating delimiter",
                   "input_file_ext": "string indicating file extension",
                   "input_comment_str": "string indicating comment string in files",
                   "input_skiprows": "integer indicating how many rows to skip in files",
                   "input_use_columns_x": "integer indicating column for x-data",
                   "input_use_columns_y": "integer indicating column for y-data",
                   "input_var_names_line_no": "integer indicating in which line variable names are defined",
                   "input_comments_line_no": "integer indicating in which line comments are stores",
                   "input_data_type": "string indicating data type",
                   "input_MCV_name": "string indicating MCV name",
                   "input_MCV_units": "string indicating MCV units",
                   "LK_RT_normalize_by_max": "boolean indicating whether to normalise LK RT data by maximum value"
		   },
 "plot_params": {"plot_cmap_name": "name of colormap",
  		 "plot_cmap_tuner": "float indicating the darkness/lightness of the colormap",
                 "plot_ticks_dir": "string indicating the direction of ticks",
        	 "plot_reverse": "boolean indicating whether data is plotted in reverse",
                 "plot_legend_ncol": "integer indicating how many columns the legend has",
                 "plot_legend_linewidth": "float indicating the line thickness of the lines in the legend",
                 "plot_legend_draggable": "boolean indicating whether the legend is draggable",
                 "plot_xlb": "float indicating lower boundary of x-axis for the plot",
                 "plot_xub": "float indicating upper boundary of x-axis for the plot"
                 }
}
